[Tutorial] Clasificación sinóptica de eventos de precipitación abundante con la librería {synoptReg} | Marc Lemus-Cánovas
…
slp_data <- bind_rows(slp_l)
write_csv(slp_data,"data/slp_dat_1949to2022.csv",col_names = T)

Add a new chunk by clicking the Insert Chunk button on the toolbar or by pressing Ctrl+Alt+I.

slp_data <- read_csv("data/slp_dat_1949to2022.csv") %>% 
  distinct(time,lon,lat, .keep_all = T)
vars_torrential <- tidy_nc(x = slp_data,
                       time_subset = dates$DATE,
                       name_vars = "mslp")
vars_torrential

## # A tibble: 45,885 x 6
##    var     lon   lat time         value anom_value
##    <chr> <dbl> <dbl> <date>       <dbl>      <dbl>
##  1 mslp  -20      70 1949-05-15 102538.       903.
##  2 mslp  -17.5    70 1949-05-15 102530        922.
##  3 mslp  -15      70 1949-05-15 102482.       907.
##  4 mslp  -12.5    70 1949-05-15 102405        866.
##  5 mslp  -10      70 1949-05-15 102302.       801.
##  6 mslp   -7.5    70 1949-05-15 102182.       711.
##  7 mslp   -5      70 1949-05-15 102065        614.
##  8 mslp   -2.5    70 1949-05-15 101942.       510.
##  9 mslp    0      70 1949-05-15 101828.       417.
## 10 mslp    2.5    70 1949-05-15 101738.       352.
## # ... with 45,875 more rows
…
