Circulation-To-Environment • synoptReg
…
The first step before executing the synoptic classification is to pass the function tidy_nc(), since it will allow us to join the two atmospheric variables to execute the classification later. It is also possible to subset the time period and the geographical extension. In addition, whether we specify an argument or not, this function computes the anomaly of each atmospheric variable. Such anomaly is computed with respect to the monthly average. If we subset the time period using the time_subet argument, the anomaly will be computed from this last period.

In any case, now we will only group our atmospheric variables. It is mandatory to use a list for grouping variables.

vars <- tidy_nc(x = list(mslp,z500), name_vars = c("mslp","z500"))
vars
#> # A tibble: 484,432 x 6
#>    var     lon   lat time         value anom_value
#>    <chr> <dbl> <dbl> <date>       <dbl>      <dbl>
#>  1 mslp  -10      60 2000-01-01 100010      -380. 
#>  2 mslp   -7.5    60 2000-01-01 100292.     -186. 
#>  3 mslp   -5      60 2000-01-01 100508.      -48.1
#>  4 mslp   -2.5    60 2000-01-01 100675        43.8
#>  5 mslp    0      60 2000-01-01 100810       103. 
#>  6 mslp    2.5    60 2000-01-01 100915       139. 
#>  7 mslp    5      60 2000-01-01 101000       146. 
#>  8 mslp    7.5    60 2000-01-01 101115       138. 
#>  9 mslp   10      60 2000-01-01 101260       177. 
#> 10 mslp   12.5    60 2000-01-01 101365       294. 
#> # ... with 484,422 more rows
…
After taking a look at the scree test, it seems reasonable to retain 5 PCs, which could allow up to 10 WT. These 5 PCs explain arround 85% of the explained variance. Now, we can already compute the synoptic classification:

cl <- synoptclas(vars,ncomp = 5,norm = T,matrix_mode = "S-mode")
#> Warning: The `x` argument of `as_tibble.matrix()` must have unique column names if `.name_repair` is omitted as of tibble 2.0.0.
#> Using compatibility `.name_repair`.
cl # list object containing the classification and the classified grid
#> $clas
#> # A tibble: 1,096 x 2
#>    time          WT
#>    <date>     <int>
#>  1 2000-01-01     6
#>  2 2000-01-02     6
#>  3 2000-01-03     9
#>  4 2000-01-04     9
#>  5 2000-01-05     9
#>  6 2000-01-06     9
#>  7 2000-01-07     9
#>  8 2000-01-08     9
#>  9 2000-01-09     6
#> 10 2000-01-10     5
#> # ... with 1,086 more rows
#> 
#> $grid_clas
#> # A tibble: 3,978 x 9
#>    var     lon   lat time          WT mean_WT_value mean_WT_anom_val~ pval_ttest
#>    <chr> <dbl> <dbl> <date>     <int>         <dbl>             <dbl>      <dbl>
#>  1 mslp  -10      60 2000-01-01     6       100625.              64.3   6.20e- 1
#>  2 mslp   -7.5    60 2000-01-01     6       100838.             215.    8.74e- 2
#>  3 mslp   -5      60 2000-01-01     6       101048.             373.    2.42e- 3
#>  4 mslp   -2.5    60 2000-01-01     6       101265.             535.    1.05e- 5
#>  5 mslp    0      60 2000-01-01     6       101490.             694.    9.92e- 9
#>  6 mslp    2.5    60 2000-01-01     6       101706.             840.    4.12e-12
#>  7 mslp    5      60 2000-01-01     6       101914.             958.    2.54e-15
#>  8 mslp    7.5    60 2000-01-01     6       102129.            1040.    1.41e-17
#>  9 mslp   10      60 2000-01-01     6       102287.            1085.    6.45e-19
#> 10 mslp   12.5    60 2000-01-01     6       102318.            1112.    1.78e-20
#> # ... with 3,968 more rows, and 1 more variable: cv_WT_value <dbl>
…
From circulation types to environment

synoptReg has a function called ct2env() that allows to estalblish the link between the synoptic classification created previously and its link with any environmental variable. In this case, the example uses daily precipitation data from the Balearic Islands (Spain) at a resolution of 5x5 km.

data(pcp)
pcp
#> # A tibble: 847,798 x 4
#>       lon     lat time       value
#>     <dbl>   <dbl> <date>     <int>
#>  1 865672 4313822 2000-01-01     0
#>  2 870672 4313822 2000-01-01     0
#>  3 870672 4318822 2000-01-01     0
#>  4 875672 4313822 2000-01-01     0
#>  5 875672 4318822 2000-01-01     0
#>  6 875672 4323822 2000-01-01     0
#>  7 875672 4328822 2000-01-01     0
#>  8 880672 4308822 2000-01-01     0
#>  9 880672 4313822 2000-01-01     0
#> 10 880672 4318822 2000-01-01     0
#> # ... with 847,788 more rows

As you can observe, the structure of the tibble is always the same (variables: lon, lat, time, value) and has to be respected so that all the functions of the package work correctly. How do we calculate the interaction of WTs with precipitation?

ct2pcp <- ct2env(pcp,clas = cl$clas,fun = mean,out = "data.frame")
ct2pcp
#> # A tibble: 1,899 x 4
#>       lon     lat    WT  calc
#>     <dbl>   <dbl> <int> <dbl>
#>  1 865672 4313822     6 15.1 
#>  2 870672 4313822     6 10.9 
#>  3 870672 4318822     6 14.7 
#>  4 875672 4313822     6  8.05
#>  5 875672 4318822     6 11.4 
#>  6 875672 4323822     6 14.4 
#>  7 875672 4328822     6 19.4 
#>  8 880672 4308822     6  7.83
#>  9 880672 4313822     6  8.22
#> 10 880672 4318822     6 10.5 
#> # ... with 1,889 more rows
…
