Environment-To-Circulation • synoptReg
…
t850 <- ReadNetCDF(file = t850_file,vars = "t",out = "data.frame") %>%
  setNames(c("time","lat","lon","value")) %>%
  select(lon,lat,time, value) %>% mutate(time = as.Date(time))

Filtering and grouping the atmospheric variables using the torrential events

Now, we can proceed to: 1) grouping the three atmospheric variables in one unique tibble; 2) Subset the atmospheric variables using the torrential rainfall dates. All this process can be computed by means of tidy_nc(). A list is required to group the atmospheric variables.

vars_torrential <- tidy_nc(x = list(slp,z500,t850),
                       time_subset = torrential_dates,
                       name_vars = c("slp","z500","t850"))
vars_torrential
#> # A tibble: 35,607 x 6
#>    var     lon   lat time         value anom_value
#>    <chr> <dbl> <dbl> <date>       <dbl>      <dbl>
#>  1 slp   -15      55 2000-09-04 101343.      25.3 
#>  2 slp   -12.5    55 2000-09-04 101353.     -30.0 
#>  3 slp   -10      55 2000-09-04 101447.       1.31
#>  4 slp    -7.5    55 2000-09-04 101753.     274.  
#>  5 slp    -5      55 2000-09-04 102044.     505.  
#>  6 slp    -2.5    55 2000-09-04 102200.     644.  
#>  7 slp     0      55 2000-09-04 102296.     713.  
#>  8 slp     2.5    55 2000-09-04 102248.     657.  
#>  9 slp     5      55 2000-09-04 102092.     496.  
#> 10 slp     7.5    55 2000-09-04 101949.     347.  
#> # ... with 35,597 more rows
…
By means of the Scree plot, it seems reasonable to retain 5 PCs. These 5 PCs explain the 82% of the variance. With this information, we can already perform our synoptic classification, specifying that the matrix mode will be "T-mode":

cl <- synoptclas(vars_torrential,ncomp = 6,norm = T,matrix_mode = "T-mode")
#> Warning: The `x` argument of `as_tibble.matrix()` must have unique column names if `.name_repair` is omitted as of tibble 2.0.0.
#> Using compatibility `.name_repair`.
cl # list object containing the classification and the classified grid
#> $clas_abs
#> # A tibble: 83 x 2
#>    time          WT
#>    <date>     <dbl>
#>  1 2000-09-04     5
#>  2 2000-10-11     2
#>  3 2000-10-22     3
#>  4 2001-02-18     1
#>  5 2001-07-16     2
#>  6 2001-09-06     5
#>  7 2001-11-10     2
#>  8 2001-11-11     2
#>  9 2001-11-14     2
#> 10 2001-11-15     2
#> # ... with 73 more rows
#> 
#> $clas_max
#> # A tibble: 83 x 2
#>    time          WT
#>    <date>     <dbl>
#>  1 2000-09-04     5
#>  2 2000-10-11     1
#>  3 2000-10-22     4
#>  4 2001-02-18     2
#>  5 2001-07-16     5
#>  6 2001-09-06     5
#>  7 2001-11-10     2
#>  8 2001-11-11     2
#>  9 2001-11-14     2
#> 10 2001-11-15     2
#> # ... with 73 more rows
#> 
#> $clas_pn
#> # A tibble: 83 x 2
#>    time       WT   
#>    <date>     <chr>
#>  1 2000-09-04 5+   
#>  2 2000-10-11 2-   
#>  3 2000-10-22 3-   
#>  4 2001-02-18 1-   
#>  5 2001-07-16 2-   
#>  6 2001-09-06 5+   
#>  7 2001-11-10 2+   
#>  8 2001-11-11 2+   
#>  9 2001-11-14 2+   
#> 10 2001-11-15 2+   
#> # ... with 73 more rows
#> 
#> $grid_clas_abs
#> # A tibble: 2,574 x 9
#>    var     lon   lat time          WT mean_WT_value mean_WT_anom_val~ pval_ttest
#>    <chr> <dbl> <dbl> <date>     <dbl>         <dbl>             <dbl>      <dbl>
#>  1 slp   -15      55 2000-09-04     5       101889.              774.   0.0212  
#>  2 slp   -12.5    55 2000-09-04     5       102011.              848.   0.00777 
#>  3 slp   -10      55 2000-09-04     5       102119.              897.   0.00211 
#>  4 slp    -7.5    55 2000-09-04     5       102178.              915.   0.000765
#>  5 slp    -5      55 2000-09-04     5       102205.              884.   0.000677
#>  6 slp    -2.5    55 2000-09-04     5       102176.              833.   0.00113 
#>  7 slp     0      55 2000-09-04     5       102170.              795.   0.00138 
#>  8 slp     2.5    55 2000-09-04     5       102144.              743.   0.00194 
#>  9 slp     5      55 2000-09-04     5       102099.              674.   0.00292 
#> 10 slp     7.5    55 2000-09-04     5       102034.              584.   0.00497 
#> # ... with 2,564 more rows, and 1 more variable: cv_WT_value <dbl>
#> 
#> $grid_clas_max
#> # A tibble: 2,574 x 9
#>    var     lon   lat time          WT mean_WT_value mean_WT_anom_val~ pval_ttest
#>    <chr> <dbl> <dbl> <date>     <dbl>         <dbl>             <dbl>      <dbl>
#>  1 slp   -15      55 2000-09-04     5       102091.              910.   0.00239 
#>  2 slp   -12.5    55 2000-09-04     5       102140.              910.   0.000816
#>  3 slp   -10      55 2000-09-04     5       102155.              871.   0.000382
#>  4 slp    -7.5    55 2000-09-04     5       102132.              816.   0.000185
#>  5 slp    -5      55 2000-09-04     5       102102.              728.   0.000177
#>  6 slp    -2.5    55 2000-09-04     5       102056.              661.   0.000298
#>  7 slp     0      55 2000-09-04     5       102030.              600.   0.000738
#>  8 slp     2.5    55 2000-09-04     5       101982.              530.   0.00277 
#>  9 slp     5      55 2000-09-04     5       101921.              451.   0.0109  
#> 10 slp     7.5    55 2000-09-04     5       101840.              354.   0.0482  
#> # ... with 2,564 more rows, and 1 more variable: cv_WT_value <dbl>
#> 
#> $grid_clas_pn
#> # A tibble: 5,148 x 8
#>    var     lon   lat time       WT    mean_WT_value mean_WT_anom_va~ cv_WT_value
#>    <chr> <dbl> <dbl> <date>     <chr>         <dbl>            <dbl>       <dbl>
#>  1 slp   -15      55 2000-09-04 5+          102523.            1271.       0.601
#>  2 slp   -12.5    55 2000-09-04 5+          102497.            1197.       0.620
#>  3 slp   -10      55 2000-09-04 5+          102449.            1098.       0.646
#>  4 slp    -7.5    55 2000-09-04 5+          102387.            1013.       0.607
#>  5 slp    -5      55 2000-09-04 5+          102322.             892.       0.616
#>  6 slp    -2.5    55 2000-09-04 5+          102230.             784.       0.636
#>  7 slp     0      55 2000-09-04 5+          102158.             676.       0.706
#>  8 slp     2.5    55 2000-09-04 5+          102047.             550.       0.757
#>  9 slp     5      55 2000-09-04 5+          101921.             413.       0.757
#> 10 slp     7.5    55 2000-09-04 5+          101788.             274.       0.725
#> # ... with 5,138 more rows
…
