Objective Lamb classification • synoptReg
…
Once we computed these 16 points, we can use the lamb_clas function to perform the classification. The user can define if the undefined type (U) is desired (Jones et al., 1996) or not (Trigo and Dacamara, 2000). thr argument allows to select the threshold you want for total shear vorticity and total flow, to tune the frequency of the “U” type.

clas <- lamb_clas(points, mslp,U = T,thr = c(4.8,4.2)) # default c(6,6)
clas
#> $clas
#> # A tibble: 1,096 x 2
#>    time       WT   
#>    <date>     <chr>
#>  1 2000-01-01 A    
#>  2 2000-01-02 A    
#>  3 2000-01-03 A    
#>  4 2000-01-04 ANW  
#>  5 2000-01-05 A    
#>  6 2000-01-06 A    
#>  7 2000-01-07 A    
#>  8 2000-01-08 A    
#>  9 2000-01-09 C    
#> 10 2000-01-10 E    
#> # ... with 1,086 more rows
#> 
#> $grid_clas
#> # A tibble: 5,967 x 4
#>      lon   lat WT    mean_WT_value
#>    <dbl> <dbl> <chr>         <dbl>
#>  1   -10    30 A             1018.
#>  2   -10    30 AE            1016.
#>  3   -10    30 AN            1018.
#>  4   -10    30 ANE           1017.
#>  5   -10    30 ANW           1019.
#>  6   -10    30 AS            1012.
#>  7   -10    30 ASE           1017.
#>  8   -10    30 ASW           1020.
#>  9   -10    30 AW            1021.
#> 10   -10    30 C             1017.
#> # ... with 5,957 more rows
…
