S-mode Classification • synoptReg
…
El primer paso antes de ejecutar la clasificación es pasar la función tidy_nc, ya que nos permitirá juntar las dos variables atmosféricas para ejecutar posteriormente la clasificación. Además es posible recortar el periodo temporal y la extensión geográfica. Además, tanto si especificamos algun argumento como en el caso contrario, esta función computa la anomalía de cada variable atmosférica. Tal anomalía es computada respecto el promedio mensual. Si recortamos el periodo temporal usando el argumento time_subet, la anomalía se calculará a partir de este último periodo.

En todo caso, ahora solamente vamos a agrupar nuestras variables ambientales. Para introducir más de una variable hay que usar una lista que contenga las variables de interés.

vars <- tidy_nc(x = list(mslp,z500), name_vars = c("mslp","z500"))
vars
#> # A tibble: 484,432 x 6
#>    var     lon   lat time         value anom_value
#>    <chr> <dbl> <dbl> <date>       <dbl>      <dbl>
#>  1 mslp  -10      60 2000-01-01 100010      -1908.
#>  2 mslp   -7.5    60 2000-01-01 100292.     -1625.
#>  3 mslp   -5      60 2000-01-01 100508.     -1410.
#>  4 mslp   -2.5    60 2000-01-01 100675      -1243.
#>  5 mslp    0      60 2000-01-01 100810      -1108.
#>  6 mslp    2.5    60 2000-01-01 100915      -1003.
#>  7 mslp    5      60 2000-01-01 101000       -918.
#>  8 mslp    7.5    60 2000-01-01 101115       -803.
#>  9 mslp   10      60 2000-01-01 101260       -658.
#> 10 mslp   12.5    60 2000-01-01 101365       -553.
#> # ... with 484,422 more rows
…
info$summary[,10] # first 10 PCs
#> [1] 1.786910096 0.009277071 0.943105029

Después de echar un vistazo sobre el scree test, parace razonable retener 4 componentes principales, lo que serán 8 WT. Estos 4 PC explican un 82 % de la varianza explicada. Con estos datos, ya podemos realizar nuestra clasificación sinóptica de este periodo:

cl <- synoptclas(vars,ncomp = 4,norm = T,matrix_mode = "S-mode")
cl # list object containing the classification and the classified grid
#> $clas
#> # A tibble: 1,096 x 2
#>    time          WT
#>    <date>     <int>
#>  1 2000-01-01     4
#>  2 2000-01-02     4
#>  3 2000-01-03     4
#>  4 2000-01-04     4
#>  5 2000-01-05     4
#>  6 2000-01-06     4
#>  7 2000-01-07     4
#>  8 2000-01-08     4
#>  9 2000-01-09     4
#> 10 2000-01-10     6
#> # ... with 1,086 more rows
#> 
#> $grid_clas
#> # A tibble: 3,094 x 8
#>    var     lon   lat time          WT mean_WT_value mean_WT_anom_va~
#>    <chr> <dbl> <dbl> <date>     <int>         <dbl>            <dbl>
#>  1 mslp  -10      60 2000-01-01     4        99430.           -2262.
#>  2 mslp   -7.5    60 2000-01-01     4        99489.           -2202.
#>  3 mslp   -5      60 2000-01-01     4        99533.           -2159.
#>  4 mslp   -2.5    60 2000-01-01     4        99574.           -2117.
#>  5 mslp    0      60 2000-01-01     4        99622.           -2069.
#>  6 mslp    2.5    60 2000-01-01     4        99668.           -2023.
#>  7 mslp    5      60 2000-01-01     4        99728.           -1964.
#>  8 mslp    7.5    60 2000-01-01     4        99827.           -1865.
#>  9 mslp   10      60 2000-01-01     4        99911.           -1781.
#> 10 mslp   12.5    60 2000-01-01     4        99908.           -1783.
#> # ... with 3,084 more rows, and 1 more variable: cv_WT_value <dbl>
…
