Computando tendencias en una rejilla climática con Tidyverse | Marc Lemus-Cánovas
…
Gestión y manejo de los datos

A continuación el objetivo es agregar los datos a escala anual, eso es, pasar del dato diario al promedio anual. Para ello tenemos que jugar con varias funciones de la librería dplyr, cargada en el tidyverse. Primero, sin embargo, hay que filtrar los valores NA:

tx <- tx %>% filter(!is.na(var)) %>% as.tibble()
## Warning: `as.tibble()` is deprecated as of tibble 2.0.0.
## Please use `as_tibble()` instead.
## The signature and semantics have changed, see `?as_tibble`.
## This warning is displayed once every 8 hours.
## Call `lifecycle::last_warnings()` to see where this warning was generated.
tx
## # A tibble: 4,114,176 x 4
##    Time                  lat   lon   var
##    <dttm>              <dbl> <dbl> <dbl>
##  1 1971-01-02 00:00:00  40.1  3.92  7.64
##  2 1971-01-02 00:00:00  40.1  3.98  7.69
##  3 1971-01-02 00:00:00  40.1  4.03  7.44
##  4 1971-01-02 00:00:00  40.1  4.09  8.29
##  5 1971-01-02 00:00:00  40.1  4.15  8.15
##  6 1971-01-02 00:00:00  40.1  4.21  8.35
##  7 1971-01-02 00:00:00  40.0  3.80  8.10
##  8 1971-01-02 00:00:00  40.0  3.86  8.04
##  9 1971-01-02 00:00:00  40.0  3.92  7.63
## 10 1971-01-02 00:00:00  40.0  3.98  7.70
## # ... with 4,114,166 more rows

Una vez filtrados los NA, procedemos a realizar el agregado anual en cada punto de grid:

tx_annual <- tx %>%
  mutate(Time = as_date(Time)) %>% #convertimos las fechas en formato lubridate
  mutate(year = year(Time)) %>% # Creamos la columna de años para realizar agregado
  group_by(year, lon, lat) %>% # agrupamos por año, longitud y latitud
  summarise(annual_tx = mean(var)) %>% # Ahora solo falta realizar el promedio
  ungroup() # una vez terminamos, desagrupamos
## `summarise()` regrouping output by 'year', 'lon' (override with `.groups` argument)

tx_annual
## # A tibble: 11,520 x 4
##     year   lon   lat annual_tx
##    <dbl> <dbl> <dbl>     <dbl>
##  1  1971  1.20  38.9      20.8
##  2  1971  1.20  38.9      20.9
##  3  1971  1.26  38.9      20.2
##  4  1971  1.26  38.9      20.3
##  5  1971  1.26  38.9      20.8
##  6  1971  1.32  38.9      20.7
##  7  1971  1.32  38.9      20.6
##  8  1971  1.32  38.9      20.7
##  9  1971  1.32  39.0      21.0
## 10  1971  1.32  39.0      20.3
## # ... with 11,510 more rows
…
De este modo, ya podemos calcular la tendencia anual y su significación estadística con la librería trend.
Para ello emplearemos la función sens.slope para el cálculo de la pendiente de la tendencia (qué magnitud
de temperatura aumenta/disminuye en un año); y la función mk.test (Test de Mann
Kendall), para verificar si la tendencia es estadísticamente significativa o si realmente es
fruto de la variabilidad de la propia serie termométrica. Además, al tratarse de un test no paramétrico, nuestros datos no tendrán por que responder a una distribución gausiana.

tx_trend <- tx_annual %>%
  group_by(lon,lat) %>% # Agrupamos por lon y lat para realizar el cálculo en cada celda
  summarise(slope = sens.slope(annual_tx)$estimates *10,
            sign = mk.test(annual_tx)$p.value)
## `summarise()` regrouping output by 'lon' (override with `.groups` argument)

tx_trend
## # A tibble: 256 x 4
## # Groups:   lon [38]
##      lon   lat slope   sign
##    <dbl> <dbl> <dbl>  <dbl>
##  1  1.20  38.9 0.122 0.156 
##  2  1.20  38.9 0.122 0.156 
##  3  1.26  38.9 0.110 0.115 
##  4  1.26  38.9 0.112 0.120 
##  5  1.26  38.9 0.147 0.0834
##  6  1.32  38.9 0.136 0.0983
##  7  1.32  38.9 0.133 0.111 
##  8  1.32  38.9 0.146 0.0869
##  9  1.32  39.0 0.150 0.0645
## 10  1.32  39.0 0.133 0.0983
## # ... with 246 more rows
…
