Computant tendències en una graella climàtica amb Tidyverse | Marc Lemus-Cánovas
…
Gestió y manipulació de les dades

A continuació l’objectiu és agregar les dades a escala anual, això és, passar de la dada diària a la mitjana anual. Per a tal objectiu hem de jugar amb diverses funcions de la llibreria dplyr, carregada altidyverse. Primer, però, cal filtrar els valors NA:

tx <- tx %>% filter(!is.na(var)) %>% as.tibble()
## Warning: `as.tibble()` is deprecated as of tibble 2.0.0.
## Please use `as_tibble()` instead.
## The signature and semantics have changed, see `?as_tibble`.
## This warning is displayed once every 8 hours.
## Call `lifecycle::last_warnings()` to see where this warning was generated.
tx
## # A tibble: 4,114,176 x 4
##    Time                  lat   lon   var
##    <dttm>              <dbl> <dbl> <dbl>
##  1 1971-01-02 00:00:00  40.1  3.92  7.64
##  2 1971-01-02 00:00:00  40.1  3.98  7.69
##  3 1971-01-02 00:00:00  40.1  4.03  7.44
##  4 1971-01-02 00:00:00  40.1  4.09  8.29
##  5 1971-01-02 00:00:00  40.1  4.15  8.15
##  6 1971-01-02 00:00:00  40.1  4.21  8.35
##  7 1971-01-02 00:00:00  40.0  3.80  8.10
##  8 1971-01-02 00:00:00  40.0  3.86  8.04
##  9 1971-01-02 00:00:00  40.0  3.92  7.63
## 10 1971-01-02 00:00:00  40.0  3.98  7.70
## # ... with 4,114,166 more rows

Un cop filtrats els NA, procedim a calcular les mitjanes anuals a cada punt de grid:

tx_annual <- tx %>%
  mutate(Time = as_date(Time)) %>% # convertim les dates en format lubridate
  mutate(year = year(Time)) %>% # Creem la columna d'anys per realitzar l'agregat
  group_by(year, lon, lat) %>% # agrupem per any, longitud i latitud
  summarise(annual_tx = mean(var)) %>% # Ara només falta fer la mitjana
  ungroup() # desagrupem
## `summarise()` regrouping output by 'year', 'lon' (override with `.groups` argument)

tx_annual
## # A tibble: 11,520 x 4
##     year   lon   lat annual_tx
##    <dbl> <dbl> <dbl>     <dbl>
##  1  1971  1.20  38.9      20.8
##  2  1971  1.20  38.9      20.9
##  3  1971  1.26  38.9      20.2
##  4  1971  1.26  38.9      20.3
##  5  1971  1.26  38.9      20.8
##  6  1971  1.32  38.9      20.7
##  7  1971  1.32  38.9      20.6
##  8  1971  1.32  38.9      20.7
##  9  1971  1.32  39.0      21.0
## 10  1971  1.32  39.0      20.3
## # ... with 11,510 more rows
Com podem observar, es mostra la temperatura màxima mitjana per a cada any i punt de grid.

Càlcul de la tendència i de la seva significació estadística

D’aquesta manera, ja podem calcular la tendència anual i la seva significació estadística mitjançant la llibreria trend.
Emprarem la funció sens.slope per al càlcul del pendent de la tendència (quina magnitud de temperatura augmenta / disminueix en un any); i la funció mk.test (Test de Mann Kendall), per verificar si la tendència és estadísticament significativa o si realment és fruit de la variabilitat de la pròpia sèrie termomètrica. A més, al tractar-se d’un test no paramètric, les nostres dades no hauran d’ajustar-se a una distribució gaussiana necessàriament.

tx_trend <- tx_annual %>%
  group_by(lon,lat) %>% # Agrupem per lon i lat per a realitzar el càlcul en cada cel·la
  summarise(slope = sens.slope(annual_tx)$estimates *10,
            sign = mk.test(annual_tx)$p.value)
## `summarise()` regrouping output by 'lon' (override with `.groups` argument)

tx_trend
## # A tibble: 256 x 4
## # Groups:   lon [38]
##      lon   lat slope   sign
##    <dbl> <dbl> <dbl>  <dbl>
##  1  1.20  38.9 0.122 0.156 
##  2  1.20  38.9 0.122 0.156 
##  3  1.26  38.9 0.110 0.115 
##  4  1.26  38.9 0.112 0.120 
##  5  1.26  38.9 0.147 0.0834
##  6  1.32  38.9 0.136 0.0983
##  7  1.32  38.9 0.133 0.111 
##  8  1.32  38.9 0.146 0.0869
##  9  1.32  39.0 0.150 0.0645
## 10  1.32  39.0 0.133 0.0983
## # ... with 246 more rows
…
