Computing trends in a climate grid with Tidyverse | Marc Lemus-Canovas
…
Data management and handling

The objective is to aggregate the daily data on an annual scale. To do this we have to use several functions from the dplyr package, loaded in the tidyverse. First, however, we have to filter the NA values:

tx <- tx %>% filter(!is.na(var)) %>% as.tibble()
## Warning: `as.tibble()` is deprecated as of tibble 2.0.0.
## Please use `as_tibble()` instead.
## The signature and semantics have changed, see `?as_tibble`.
## This warning is displayed once every 8 hours.
## Call `lifecycle::last_warnings()` to see where this warning was generated.
tx
## # A tibble: 4,114,176 x 4
##    Time                  lat   lon   var
##    <dttm>              <dbl> <dbl> <dbl>
##  1 1971-01-02 00:00:00  40.1  3.92  7.64
##  2 1971-01-02 00:00:00  40.1  3.98  7.69
##  3 1971-01-02 00:00:00  40.1  4.03  7.44
##  4 1971-01-02 00:00:00  40.1  4.09  8.29
##  5 1971-01-02 00:00:00  40.1  4.15  8.15
##  6 1971-01-02 00:00:00  40.1  4.21  8.35
##  7 1971-01-02 00:00:00  40.0  3.80  8.10
##  8 1971-01-02 00:00:00  40.0  3.86  8.04
##  9 1971-01-02 00:00:00  40.0  3.92  7.63
## 10 1971-01-02 00:00:00  40.0  3.98  7.70
## # ... with 4,114,166 more rows

Once the NAs have been filtered, we proceed to carry out the annual aggregation at each grid point:

tx_annual <- tx %>%
  mutate(Time = as_date(Time)) %>% # we convert the dates into lubridate format
  mutate(year = year(Time)) %>% # We create the "year" column to perform the annual aggregate
  group_by(year, lon, lat) %>% # we group by year, longitude and latitude
  summarise(annual_tx = mean(var)) %>% # computing yearly mean
  ungroup() 
## `summarise()` regrouping output by 'year', 'lon' (override with `.groups` argument)

tx_annual
## # A tibble: 11,520 x 4
##     year   lon   lat annual_tx
##    <dbl> <dbl> <dbl>     <dbl>
##  1  1971  1.20  38.9      20.8
##  2  1971  1.20  38.9      20.9
##  3  1971  1.26  38.9      20.2
##  4  1971  1.26  38.9      20.3
##  5  1971  1.26  38.9      20.8
##  6  1971  1.32  38.9      20.7
##  7  1971  1.32  38.9      20.6
##  8  1971  1.32  38.9      20.7
##  9  1971  1.32  39.0      21.0
## 10  1971  1.32  39.0      20.3
## # ... with 11,510 more rows
As we can see, the average maximum temperature for each year and grid point is shown.

Trend Computation and its statistical significance

In this way, we can already calculate the annual trend and its statistical significance with the trend package.
To do this we will use the sens.slope function to calculate the slope of the trend (increase/decrease per year); and the mk.test function (Mann test Kendall), to verify if the trend is statistically significant or if it is the result of the variability of the thermometric series itself. Furthermore, as this is a non-parametric test, our data will not have to fit a Gaussian distribution.

tx_trend <- tx_annual %>%
  group_by(lon,lat) %>% # we group by lon and lat to perform the calculation in each cell
  summarise(slope = sens.slope(annual_tx)$estimates *10,
            sign = mk.test(annual_tx)$p.value)
## `summarise()` regrouping output by 'lon' (override with `.groups` argument)

tx_trend
## # A tibble: 256 x 4
## # Groups:   lon [38]
##      lon   lat slope   sign
##    <dbl> <dbl> <dbl>  <dbl>
##  1  1.20  38.9 0.122 0.156 
##  2  1.20  38.9 0.122 0.156 
##  3  1.26  38.9 0.110 0.115 
##  4  1.26  38.9 0.112 0.120 
##  5  1.26  38.9 0.147 0.0834
##  6  1.32  38.9 0.136 0.0983
##  7  1.32  38.9 0.133 0.111 
##  8  1.32  38.9 0.146 0.0869
##  9  1.32  39.0 0.150 0.0645
## 10  1.32  39.0 0.133 0.0983
## # ... with 246 more rows
…
